1번

loop:
	mov p1, p2
	call delay
	jmp start

delay:  MOV   R3,#2
      MOV   R2,#4
      MOV   R1,#236
delay2:
      DJNZ  R1,delay2
      DJNZ  R2,delay2
      DJNZ  R3,delay2
      RET




//////////////////////////////////////

2번

loop:
	mov p1, #255
	call delayp2
	mov p1, #0
	call delayp2
	jmp loop

delayp2:
	MOV R5, P2
delayp22:
	MOV R7,#250
	DJNZ R7,$
	MOV R7,#247
	DJNZ R7,$
	DJNZ R5, delayp22
	RET



//////////////////////////////////////





//////////////////////////////////////

2번

loop:
	mov p1, #255
	call delayp2
	mov p1, #0
	call delayp2
	jmp loop

delayp2:
	MOV R5, P2
delayp22:
	MOV R7,#250
	DJNZ R7,$
	MOV R7,#247
	DJNZ R7,$
	DJNZ R5, delayp22
	RET



//////////////////////////////////////





//////////////////////////////////////

2번

loop:
	mov p1, #255
	call delayp2
	mov p1, #0
	call delayp2
	jmp loop

delayp2:
	MOV R5, P2
delayp22:
	MOV R7,#250
	DJNZ R7,$
	MOV R7,#247
	DJNZ R7,$
	DJNZ R5, delayp22
	RET



//////////////////////////////////////





//////////////////////////////////////

2번

loop:
	mov p1, #255
	call delayp2
	mov p1, #0
	call delayp2
	jmp loop

delayp2:
	MOV R5, P2
delayp22:
	MOV R7,#250
	DJNZ R7,$
	MOV R7,#247
	DJNZ R7,$
	DJNZ R5, delayp22
	RET



//////////////////////////////////////





//////////////////////////////////////

2번

loop:
	mov p1, #255
	call delayp2
	mov p1, #0
	call delayp2
	jmp loop

delayp2:
	MOV R5, P2
delayp22:
	MOV R7,#250
	DJNZ R7,$
	MOV R7,#247
	DJNZ R7,$
	DJNZ R5, delayp22
	RET



//////////////////////////////////////








